<svg width="25" height="24" viewBox="0 0 25 24" fill="none" xmlns="http://www.w3.org/2000/svg">
<g clip-path="url(#clip0)">
<path d="M3.77536 2L2.88828 4.43174L0.5 5.33495L2.88828 6.23817L3.77536 8.66991L4.66243 6.23817L7.05071 5.33495L4.66243 4.43174L3.77536 2ZM14.706 4.2233C12.4394 4.19794 10.2316 5.08373 8.5178 6.82873C5.1187 10.2897 5.1187 15.9433 8.5178 19.4043C11.9169 22.8652 17.4695 22.8652 20.8686 19.4043C22.2521 17.9957 23.0793 16.2138 23.3294 14.3801L23.5 13.1317L22.2611 13.1165C20.6124 13.0974 18.9722 12.4536 17.7042 11.1624C16.215 9.64622 15.6674 7.39686 15.7829 5.40009L15.8511 4.23633L14.706 4.2233ZM13.7614 6.6203C13.8857 8.76469 14.4679 11.0112 16.1603 12.7344C17.4853 14.0835 19.1558 14.7566 20.8708 15.0576C20.5714 16.0642 20.109 17.0339 19.3248 17.8323C16.7627 20.441 12.6237 20.441 10.0617 17.8323C7.4996 15.2237 7.4996 11.0093 10.0617 8.40068C11.1356 7.30718 12.4132 6.80348 13.7614 6.6203Z" fill="#828282"/>
</g>
<defs>
<clipPath id="clip0">
<rect width="24" height="24" fill="white" transform="translate(0.5)"/>
</clipPath>
</defs>
</svg>
