<svg width="24" height="24" viewBox="0 0 24 24" fill="none" xmlns="http://www.w3.org/2000/svg">
<path d="M12.0288 1.06732C11.9603 1.07093 11.8918 1.07814 11.8269 1.09617C11.5349 1.15386 11.2897 1.34497 11.1635 1.6154L8.16346 7.73078L1.35577 8.7404C1.02043 8.8017 0.742787 9.04328 0.641826 9.37141C0.537258 9.69953 0.623796 10.0565 0.865383 10.2981L5.74038 15.0866L4.61538 21.8366C4.55769 22.1791 4.69471 22.5289 4.97596 22.738C5.25721 22.9435 5.63221 22.976 5.94231 22.8173L12 19.6154L18.0577 22.8173C18.3678 22.976 18.7428 22.9435 19.024 22.738C19.3053 22.5289 19.4423 22.1791 19.3846 21.8366L18.2596 15.0866L23.1346 10.2981C23.3762 10.0565 23.4627 9.69953 23.3582 9.37141C23.2572 9.04328 22.9796 8.8017 22.6442 8.7404L15.8365 7.73078L12.8365 1.6154C12.6923 1.29449 12.3822 1.08174 12.0288 1.06732ZM12 4.12501L14.4231 9.00001C14.5601 9.26684 14.8197 9.45073 15.1154 9.4904L20.5096 10.2981L16.6154 14.1058C16.3918 14.3113 16.2837 14.6142 16.3269 14.9135L17.25 20.3077L12.4327 17.7692C12.1623 17.625 11.8377 17.625 11.5673 17.7692L6.75 20.3077L7.67307 14.9135C7.71634 14.6142 7.60817 14.3113 7.38461 14.1058L3.49038 10.2981L8.88461 9.4904C9.18029 9.45073 9.4399 9.26684 9.57692 9.00001L12 4.12501Z" fill="white"/>
</svg>
