<svg width="27" height="26" viewBox="0 0 27 26" fill="none" xmlns="http://www.w3.org/2000/svg">
<g clip-path="url(#clip0)">
<path d="M22.5312 8C22.5312 8 15.25 8.03125 10.2188 8.03125C4.73047 8.03125 3.09375 12.0625 3.09375 12.0625H1.40625L0.5625 15.875H2.53125C2.53125 15.875 2.375 20 8.6875 20H19.875L20.25 18.2188H22.8438C25.6211 18.2188 26.125 16.1758 26.125 15.25C26.125 14.1953 25.5625 13.75 25.5625 13.75C25.5625 13.75 26.4062 13.3164 26.4062 11.9062C26.4062 9.67578 23.8438 9.78125 23.8438 9.78125H22.1562L22.5312 8ZM15.8125 10.125C18.957 10.125 18.7188 12.5625 18.7188 12.5625H16.5938C16.5938 11.8867 16.1602 11.7812 15.6562 11.7812C15.1484 11.7812 14.8125 12.0156 14.8125 12.4062C14.8125 13.3516 18.3438 12.6797 18.3438 15.3125C18.3438 16.4492 17.4414 17.875 14.9688 17.875C13.2812 17.875 11.8438 17.0742 11.9062 15.2188H14.0938C14.0938 15.5898 14.1523 16.25 15.125 16.25C15.5234 16.25 16.1875 16.0938 16.1875 15.5312C16.1875 14.4805 12.6562 15.0352 12.6562 12.5938C12.6562 11.2656 13.8633 10.125 15.8125 10.125ZM5.90625 10.2812H8.15625L7.34375 14.2812C7.34375 14.2812 6.78906 16 8.09375 16C9.31641 16 9.4375 14.4062 9.4375 14.4062L10.3125 10.2812H12.5625L11.625 14.6875C11.625 14.6875 11.5703 17.875 7.90625 17.875C4.78906 17.875 4.80078 15.5742 4.84375 15.3438C4.88672 15.1133 5.90625 10.2812 5.90625 10.2812ZM19.875 10.3125H23.8125C24.4805 10.3125 25.8438 10.457 25.8438 11.875C25.8438 13.4766 24.5312 13.7188 24.5312 13.7188C24.5312 13.7188 25.5938 13.9844 25.5938 15.25C25.5938 17.6562 23.0625 17.6875 22.8125 17.6875H18.3125L19.875 10.3125ZM21.625 12.0625L21.4062 13.1562H22.7812C22.8906 13.1562 23.4688 13.0898 23.4688 12.5625C23.4688 12.0352 22.9062 12.0625 22.9062 12.0625H21.625ZM21.0938 14.5312L20.8125 15.9062H22.3125C22.4531 15.9062 23.25 15.7969 23.25 15.125C23.25 14.4531 22.4062 14.5312 22.4062 14.5312H21.0938Z" fill="#828282"/>
</g>
<defs>
<clipPath id="clip0">
<rect width="26" height="26" fill="white" transform="translate(0.5)"/>
</clipPath>
</defs>
</svg>
