<svg width="28" height="28" viewBox="0 0 28 28" fill="none" xmlns="http://www.w3.org/2000/svg">
<path d="M4.66659 4.66663C3.37742 4.66663 2.33325 5.71079 2.33325 6.99996V9.33329V12.8333V21C2.33325 22.2891 3.37742 23.3333 4.66659 23.3333H23.3333C24.6224 23.3333 25.6666 22.2891 25.6666 21V12.8333V9.33329V6.99996C25.6666 5.71079 24.6224 4.66663 23.3333 4.66663H4.66659ZM4.66659 6.99996H23.3333V9.33329H4.66659V6.99996ZM4.66659 12.8333H23.3333V21H4.66659V12.8333Z" fill="#333333"/>
</svg>
