<svg width="21" height="21" viewBox="0 0 21 21" fill="none" xmlns="http://www.w3.org/2000/svg">
<path d="M20.246 0.354831L0.635801 9.58315C0.396788 9.69563 0.409299 10.0398 0.655848 10.1346L7.90497 12.9227C7.98419 12.9532 8.0468 13.0158 8.07728 13.095L10.8654 20.3442C10.9602 20.5907 11.3044 20.6032 11.4168 20.3642L20.6452 0.754016C20.7649 0.499643 20.5004 0.235127 20.246 0.354831Z" fill="#333333"/>
</svg>
